{
   "abstract" : "A Google Reader replacement",
   "author" : [
      "Caleb Cushing <xenoterracide@gmail.com>"
   ],
   "dynamic_config" : 0,
   "generated_by" : "Dist::Zilla version 4.300034, CPAN::Meta::Converter version 2.131560",
   "license" : [
      "agpl_3"
   ],
   "meta-spec" : {
      "url" : "http://search.cpan.org/perldoc?CPAN::Meta::Spec",
      "version" : "2"
   },
   "name" : "Feeder",
   "no_index" : {
      "file" : [
         "perlcritic.rc"
      ]
   },
   "prereqs" : {
      "configure" : {
         "requires" : {
            "ExtUtils::MakeMaker" : "6.30",
            "File::ShareDir::Install" : "0.03"
         }
      },
      "develop" : {
         "requires" : {
            "Pod::Coverage::TrustPod" : "0",
            "Test::CPAN::Changes" : "0.19",
            "Test::CPAN::Meta" : "0",
            "Test::Pod" : "1.41",
            "Test::Pod::Coverage" : "1.08",
            "version" : "0.9901"
         }
      },
      "runtime" : {
         "requires" : {
            "Bread::Board" : "0",
            "Bread::Board::Declare" : "0",
            "CHI" : "0",
            "Class::Load" : "0.20",
            "DBIx::Connector" : "0",
            "DBIx::QueryLog" : "0",
            "DDP" : "0",
            "File::ShareDir::ProjectDistDir" : "0",
            "HTTP::Throwable::Factory" : "0",
            "MIME::Base64::URLSafe" : "0",
            "Moose" : "0",
            "Moose::Role" : "0",
            "MooseX::Types::LogAny" : "0",
            "MooseX::Types::Perl" : "0",
            "MooseX::Types::URI" : "0",
            "OX" : "0",
            "SQL::Abstract::More" : "0",
            "Test::Requires::Env" : "0",
            "Throwable" : "0",
            "Try::Tiny" : "0",
            "Type::Params" : "0",
            "Types::Standard" : "0",
            "namespace::autoclean" : "0",
            "perl" : "5.016",
            "strict" : "0",
            "warnings" : "0"
         }
      },
      "test" : {
         "requires" : {
            "File::Find" : "0",
            "File::Temp" : "0",
            "Test::Deep" : "0",
            "Test::Fatal" : "0",
            "Test::Method" : "0",
            "Test::Moose" : "0",
            "Test::More" : "0.88"
         }
      }
   },
   "provides" : {
      "Feeder::App" : {
         "file" : "lib/Feeder/App.pm",
         "version" : "0.001000"
      },
      "Feeder::Container::Mapper::SQL" : {
         "file" : "lib/Feeder/Container/Mapper/SQL.pm",
         "version" : "0.001000"
      },
      "Feeder::Container::Mapper::Test" : {
         "file" : "lib/Feeder/Container/Mapper/Test.pm",
         "version" : "0.001000"
      },
      "Feeder::Container::Mapper::Test::SQL" : {
         "file" : "lib/Feeder/Container/Mapper/Test/SQL.pm",
         "version" : "0.001000"
      },
      "Feeder::Container::Repository" : {
         "file" : "lib/Feeder/Container/Repository.pm",
         "version" : "0.001000"
      },
      "Feeder::Container::Role::Common" : {
         "file" : "lib/Feeder/Container/Role/Common.pm",
         "version" : "0.001000"
      },
      "Feeder::Container::Role::Logger" : {
         "file" : "lib/Feeder/Container/Role/Logger.pm",
         "version" : "0.001000"
      },
      "Feeder::Container::Role::Mapper" : {
         "file" : "lib/Feeder/Container/Role/Mapper.pm",
         "version" : "0.001000"
      },
      "Feeder::Controller::Feed" : {
         "file" : "lib/Feeder/Controller/Feed.pm",
         "version" : "0.001000"
      },
      "Feeder::Interface::Mapper::Reader" : {
         "file" : "lib/Feeder/Interface/Mapper/Reader.pm",
         "version" : "0.001000"
      },
      "Feeder::Interface::Mapper::Writer" : {
         "file" : "lib/Feeder/Interface/Mapper/Writer.pm",
         "version" : "0.001000"
      },
      "Feeder::Interface::Repository" : {
         "file" : "lib/Feeder/Interface/Repository.pm",
         "version" : "0.001000"
      },
      "Feeder::Mapper::SQL::Reader::Feed" : {
         "file" : "lib/Feeder/Mapper/SQL/Reader/Feed.pm",
         "version" : "0.001000"
      },
      "Feeder::Mapper::SQL::Role::Common" : {
         "file" : "lib/Feeder/Mapper/SQL/Role/Common.pm",
         "version" : "0.001000"
      },
      "Feeder::Mapper::SQL::Role::Reader" : {
         "file" : "lib/Feeder/Mapper/SQL/Role/Reader.pm",
         "version" : "0.001000"
      },
      "Feeder::Mapper::SQL::Role::Writer" : {
         "file" : "lib/Feeder/Mapper/SQL/Role/Writer.pm",
         "version" : "0.001000"
      },
      "Feeder::Mapper::SQL::Writer::Feed" : {
         "file" : "lib/Feeder/Mapper/SQL/Writer/Feed.pm",
         "version" : "0.001000"
      },
      "Feeder::Mapper::Test::Reader::Feed" : {
         "file" : "lib/Feeder/Mapper/Test/Reader/Feed.pm",
         "version" : "0.001000"
      },
      "Feeder::Mapper::Test::Role::Common" : {
         "file" : "lib/Feeder/Mapper/Test/Role/Common.pm",
         "version" : "0.001000"
      },
      "Feeder::Mapper::Test::Writer::Feed" : {
         "file" : "lib/Feeder/Mapper/Test/Writer/Feed.pm",
         "version" : "0.001000"
      },
      "Feeder::Model::Feed" : {
         "file" : "lib/Feeder/Model/Feed.pm",
         "version" : "0.001000"
      },
      "Feeder::Repository" : {
         "file" : "lib/Feeder/Repository.pm",
         "version" : "0.001000"
      },
      "Feeder::Repository::Feed" : {
         "file" : "lib/Feeder/Repository/Feed.pm",
         "version" : "0.001000"
      },
      "Feeder::Role::Entity" : {
         "file" : "lib/Feeder/Role/Entity.pm",
         "version" : "0.001000"
      },
      "Feeder::Role::Logs" : {
         "file" : "lib/Feeder/Role/Logs.pm",
         "version" : "0.001000"
      },
      "Feeder::Role::SQL" : {
         "file" : "lib/Feeder/Role/SQL.pm",
         "version" : "0.001000"
      },
      "Feeder::X::IllegalArgument" : {
         "file" : "lib/Feeder/X/IllegalArgument.pm",
         "version" : "0.001000"
      },
      "Feeder::X::IllegalState" : {
         "file" : "lib/Feeder/X/IllegalState.pm",
         "version" : "0.001000"
      }
   },
   "release_status" : "stable",
   "resources" : {
      "bugtracker" : {
         "web" : "https://github.com/xenoterracide/feeder/issues"
      },
      "homepage" : "https://metacpan.org/dist/Feeder",
      "repository" : {
         "type" : "git",
         "url" : "git://github.com/xenoterracide/feeder.git",
         "web" : "https://github.com/xenoterracide/feeder"
      }
   },
   "version" : "0.001000"
}

